{"nome": "Estefanni Dos Santos Passos",
"idPessoa": 1285733,
"disciplinas": ["9825": {"disciplina": "FÍSICA",
"idDisciplina": 9825,
"siglaDisciplina": "FIS",
"faltas": 0,
"infoAvaliacao": {"idConceito": null,
"idTipoAvaliacao": 1,
"descricaoConceito": null,
"siglaConceito": null,
"tipoAvaliacao": "NOTA"},
"dados": {"unidades": [],
"totalNota": 0,
"qtdNotas": 0,
"media": null}},
"10822": {"disciplina": "QUÍMICA",
"idDisciplina": 10822,
"siglaDisciplina": "QUI",
"faltas": 0,
"infoAvaliacao": {"idConceito": null,
"idTipoAvaliacao": 1,
"descricaoConceito": null,
"siglaConceito": null,
"tipoAvaliacao": "NOTA"},
"dados": {"unidades": [],
"totalNota": 0,
"qtdNotas": 0,
"media": null}},
"131092": {"disciplina": "SOCIOLOGIA",
"idDisciplina": 131092,
"siglaDisciplina": "SOC",
"faltas": 0,
"infoAvaliacao": {"idConceito": null,
"idTipoAvaliacao": 1,
"descricaoConceito": null,
"siglaConceito": null,
"tipoAvaliacao": "NOTA"},
"dados": {"unidades": [],
"totalNota": 0,
"qtdNotas": 0,
"media": null}},
"12838": {"disciplina": "FILOSOFIA",
"idDisciplina": 12838,
"siglaDisciplina": "FIL",
"faltas": 0,
"infoAvaliacao": {"idConceito": null,
"idTipoAvaliacao": 1,
"descricaoConceito": null,
"siglaConceito": null,
"tipoAvaliacao": "NOTA"},
"dados": {"unidades": [],
"totalNota": 0,
"qtdNotas": 0,
"media": null}},
"2847": {"disciplina": "MATEMÁTICA",
"idDisciplina": 2847,
"siglaDisciplina": "MAT",
"faltas": 0,
"infoAvaliacao": {"idConceito": null,
"idTipoAvaliacao": 1,
"descricaoConceito": null,
"siglaConceito": null,
"tipoAvaliacao": "NOTA"},
"dados": {"unidades": [],
"totalNota": 0,
"qtdNotas": 0,
"media": null}},
"7815": {"disciplina": "EDUCAÇÃO FÍSICA",
"idDisciplina": 7815,
"siglaDisciplina": "EFI",
"faltas": 0,
"infoAvaliacao": {"idConceito": null,
"idTipoAvaliacao": 1,
"descricaoConceito": null,
"siglaConceito": null,
"tipoAvaliacao": "NOTA"},
"dados": {"unidades": [],
"totalNota": 0,
"qtdNotas": 0,
"media": null}},
"14816": {"disciplina": "ARTE",
"idDisciplina": 14816,
"siglaDisciplina": "ART",
"faltas": 0,
"infoAvaliacao": {"idConceito": null,
"idTipoAvaliacao": 1,
"descricaoConceito": null,
"siglaConceito": null,
"tipoAvaliacao": "NOTA"},
"dados": {"unidades": [],
"totalNota": 0,
"qtdNotas": 0,
"media": null}},
"5831": {"disciplina": "HISTÓRIA",
"idDisciplina": 5831,
"siglaDisciplina": "HIS",
"faltas": 0,
"infoAvaliacao": {"idConceito": null,
"idTipoAvaliacao": 1,
"descricaoConceito": null,
"siglaConceito": null,
"tipoAvaliacao": "NOTA"},
"dados": {"unidades": [],
"totalNota": 0,
"qtdNotas": 0,
"media": null}},
"11828": {"disciplina": "BIOLOGIA",
"idDisciplina": 11828,
"siglaDisciplina": "BIO",
"faltas": 0,
"infoAvaliacao": {"idConceito": null,
"idTipoAvaliacao": 1,
"descricaoConceito": null,
"siglaConceito": null,
"tipoAvaliacao": "NOTA"},
"dados": {"unidades": [],
"totalNota": 0,
"qtdNotas": 0,
"media": null}},
"8339807": {"disciplina": "LÍNGUA PORTUGUESA E LITERATURA BRASILEIRA",
"idDisciplina": 8339807,
"siglaDisciplina": "POR",
"faltas": 0,
"infoAvaliacao": {"idConceito": null,
"idTipoAvaliacao": 1,
"descricaoConceito": null,
"siglaConceito": null,
"tipoAvaliacao": "NOTA"},
"dados": {"unidades": [],
"totalNota": 0,
"qtdNotas": 0,
"media": null}},
"85315292": {"disciplina": "LINGUAGENS, CÓDIGOS E SUAS TECNOLOGIAS",
"idDisciplina": 85315292,
"siglaDisciplina": "LCS",
"faltas": 0,
"infoAvaliacao": {"idConceito": null,
"idTipoAvaliacao": 1,
"descricaoConceito": null,
"siglaConceito": null,
"tipoAvaliacao": "NOTA"},
"dados": {"unidades": [],
"totalNota": 0,
"qtdNotas": 0,
"media": null}},
"4837": {"disciplina": "GEOGRAFIA",
"idDisciplina": 4837,
"siglaDisciplina": "GEO",
"faltas": 0,
"infoAvaliacao": {"idConceito": null,
"idTipoAvaliacao": 1,
"descricaoConceito": null,
"siglaConceito": null,
"tipoAvaliacao": "NOTA"},
"dados": {"unidades": [],
"totalNota": 0,
"qtdNotas": 0,
"media": null}},
"68854": {"disciplina": "LÍNGUA ESTRANGEIRA MODERNA(INGLÊS)",
"idDisciplina": 68854,
"siglaDisciplina": "ING",
"faltas": 0,
"infoAvaliacao": {"idConceito": null,
"idTipoAvaliacao": 1,
"descricaoConceito": null,
"siglaConceito": null,
"tipoAvaliacao": "NOTA"},
"dados": {"unidades": [],
"totalNota": 0,
"qtdNotas": 0,
"media": null}}]}
